<?xml version="1.0" encoding="utf-8"?>
<!-- Generator: Adobe Illustrator 17.0.0, SVG Export Plug-In . SVG Version: 6.00 Build 0)  -->
<!DOCTYPE svg PUBLIC "-//W3C//DTD SVG 1.1//EN" "http://www.w3.org/Graphics/SVG/1.1/DTD/svg11.dtd">
<svg version="1.1" id="Capa_1" xmlns="http://www.w3.org/2000/svg" xmlns:xlink="http://www.w3.org/1999/xlink" x="0px" y="0px"
	 width="2000px" height="1000px" viewBox="0 0 2000 1000" enable-background="new 0 0 2000 1000" xml:space="preserve">
<g>
	<g>
		<path fill="#D89400" d="M0.021,642.673c0-212.64,0.01-425.28-0.085-637.92c-0.002-3.715,0.537-4.901,4.67-4.9
			c663.61,0.116,1327.22,0.116,1990.83,0c4.134-0.001,4.672,1.185,4.671,4.9c-0.096,208.82-0.086,417.641-0.086,626.461
			c-1.904,2.478-4.45,2.143-7.113,1.768c-18.043-2.536-36.028-5.467-54.084-7.909c-34.04-4.603-68.118-8.86-102.294-12.373
			c-28.466-2.926-56.952-5.618-85.475-7.85c-17.626-1.379-35.289-2.394-52.932-3.571c-23.874-1.592-47.792-2.217-71.662-3.813
			c-10.723-0.717-21.495-0.676-32.234-1c-52.741-1.591-105.514-1.864-158.267-1.056c-26.347,0.403-52.716,0.925-79.051,1.999
			c-23.73,0.968-47.466,1.938-71.181,3.197c-23.194,1.231-46.401,2.4-69.565,4.109c-30.257,2.232-60.521,4.368-90.762,6.842
			c-26.098,2.135-52.189,4.354-78.264,6.717c-26.769,2.427-53.52,5.087-80.262,7.82c-26.224,2.681-52.478,5.089-78.707,7.731
			c-26.057,2.624-52.118,5.215-78.172,7.874c-22.775,2.324-45.576,4.397-68.355,6.676c-20.19,2.021-40.394,3.911-60.599,5.748
			c-17.958,1.632-35.923,3.237-53.901,4.666c-20.394,1.622-40.782,3.359-61.189,4.791c-12.451,0.874-24.913,1.64-37.37,2.458
			c-23.008,1.512-46.036,2.518-69.084,3.129c-9.539,0.253-19.091,0.376-28.621,0.435c-19.258,0.119-38.508,0.938-57.768,0.673
			c-3.896,0-7.792,0-11.689,0c-5.877,0-11.754,0-17.632,0c-6.234,0-12.468,0-18.701,0c-6.866,0-13.733,0-20.598,0
			c-3.227,0-6.454,0-9.682,0c-24.957,0.062-49.904-0.674-74.852-1.15c-42.842-0.817-85.419-5.132-127.939-10.161
			c-28.428-3.362-56.718-7.595-84.916-12.498C4.205,645.966,1.795,645.035,0.021,642.673z"/>
		<path fill="#FEFEFE" d="M372.958,669.914c32.265-0.858,64.532-1.621,96.774-3.222c46.62-2.315,93.205-5.164,139.713-9.159
			c40.961-3.519,81.928-6.988,122.858-10.85c43.862-4.139,87.68-8.74,131.522-13.087c40.218-3.988,80.433-8.006,120.666-11.83
			c43.689-4.153,87.374-8.387,131.106-12.046c38.553-3.225,77.149-5.991,115.759-8.456c74.134-4.732,148.348-7.619,222.633-8.467
			c72.038-0.822,144.044,0.519,215.988,4.266c65.327,3.402,130.503,8.723,195.505,16.192c43.591,5.009,87.058,10.859,130.399,17.683
			c1.361,0.214,2.76,0.189,4.141,0.275c0,12.323-0.071,24.646,0.065,36.967c0.024,2.211-0.39,3.076-2.661,2.642
			c-0.837-0.16-1.731-0.026-2.598-0.026c-540.63,0-1081.259,0-1621.889,0C372.202,670.486,372.209,670.191,372.958,669.914z"/>
		<path fill="#FEFEFE" d="M0.021,642.673c28.503,4.943,57.068,9.474,85.787,12.997c29.763,3.651,59.589,6.651,89.493,8.869
			c39.778,2.95,79.621,4.44,119.489,5.386c0.754,0.273,0.761,0.564,0.022,0.874c-96.892,0-193.785-0.027-290.677,0.105
			c-3.654,0.005-4.353-0.829-4.215-4.314C0.238,658.628,0.021,650.646,0.021,642.673z"/>
		<path fill="#F5E5C0" d="M304.157,669.915c6.946,0.005,13.892,0.01,20.839,0.014c0.757,0.268,0.765,0.558,0.025,0.869
			c-6.944,0-13.889,0-20.833,0C303.422,670.529,303.412,670.235,304.157,669.915z"/>
		<path fill="#F2DBAA" d="M325.021,670.798c-0.008-0.29-0.017-0.579-0.025-0.869c6.267,0.005,12.534,0.01,18.801,0.015
			c0.766,0.308,0.757,0.592-0.026,0.854C337.521,670.798,331.271,670.798,325.021,670.798z"/>
		<path fill="#F5E5C0" d="M343.771,670.798c0.013-0.284,0.022-0.569,0.026-0.854c5.905-0.002,11.811-0.005,17.716-0.007
			c0.761,0.317,0.75,0.604-0.033,0.861C355.576,670.798,349.674,670.798,343.771,670.798z"/>
		<path fill="#FAF3E3" d="M361.479,670.798c0.014-0.287,0.025-0.574,0.033-0.861c3.815-0.007,7.63-0.015,11.446-0.023
			c-0.014,0.294-0.021,0.589-0.021,0.883C369.118,670.798,365.299,670.798,361.479,670.798z"/>
		<path fill="#FAF3E4" d="M304.157,669.915c0.019,0.294,0.029,0.588,0.03,0.883c-3.125,0-6.25,0-9.375,0
			c-0.004-0.291-0.011-0.582-0.022-0.874C297.913,669.921,301.035,669.918,304.157,669.915z"/>
	</g>
</g>
</svg>
